<?xml version="1.0" encoding="utf-8"?>
<!-- Generator: Adobe Illustrator 26.0.3, SVG Export Plug-In . SVG Version: 6.00 Build 0)  -->
<svg version="1.1" id="Capa_1" xmlns="http://www.w3.org/2000/svg" xmlns:xlink="http://www.w3.org/1999/xlink" x="0px" y="0px"
	 viewBox="0 0 312 301" style="enable-background:new 0 0 312 301;" xml:space="preserve">
<style type="text/css">
	.st0{fill:#2F326B;}
	.st1{fill:#EAAEAC;}
	.st2{fill:#C74E31;}
	.st3{fill:#FFFFFF;}
</style>
<path class="st0" d="M284.9,148.2H118.1c-3.3,0-6-2.7-6-6V7c0-3.3,2.7-6,6-6h166.8c3.3,0,6,2.7,6,6v135.2
	C290.9,145.5,288.2,148.2,284.9,148.2z"/>
<path class="st1" d="M156.4,234.4H6.5c-3.3,0-6-2.7-6-6v-104c0-3.3,2.7-6,6-6h149.9c3.3,0,6,2.7,6,6v104
	C162.4,231.7,159.7,234.4,156.4,234.4z"/>
<path class="st2" d="M305.8,300.3H174.5c-3.3,0-6-2.7-6-6v-84.5c0-3.3,2.7-6,6-6h131.3c3.3,0,6,2.7,6,6v84.5
	C311.8,297.6,309.1,300.3,305.8,300.3z"/>
<g>
	<path class="st3" d="M184.2,244.4v5.3h7.3v2.8h-7.3v6.7h-2.8v-17.5h11v2.7H184.2z"/>
	<path class="st3" d="M196.6,258.5c-0.9-0.6-1.7-1.4-2.2-2.4c-0.5-1-0.8-2.2-0.8-3.5s0.3-2.5,0.8-3.5c0.5-1,1.3-1.8,2.2-2.4
		c0.9-0.6,2-0.9,3.1-0.9c1.2,0,2.2,0.3,3.2,0.9c0.9,0.6,1.7,1.4,2.2,2.4c0.5,1,0.8,2.2,0.8,3.5s-0.3,2.5-0.8,3.5
		c-0.5,1-1.3,1.9-2.2,2.4c-0.9,0.6-2,0.9-3.2,0.9C198.6,259.4,197.5,259.1,196.6,258.5z M202.2,255.5c0.6-0.8,1-1.8,1-3
		s-0.3-2.3-1-3s-1.5-1.1-2.5-1.1s-1.8,0.4-2.4,1.1s-1,1.8-1,3s0.3,2.3,1,3c0.6,0.8,1.5,1.2,2.4,1.2S201.5,256.3,202.2,255.5z"/>
	<path class="st3" d="M215.1,245.7v3c-0.2,0-0.4-0.1-0.6-0.1c-1,0-1.9,0.4-2.5,1.1c-0.6,0.7-0.9,1.7-0.9,3.1v6.5h-2.7v-13.3h2.6v1.9
		C211.8,246.4,213.1,245.7,215.1,245.7z"/>
	<path class="st3" d="M235.4,247.1c0.8,1,1.3,2.4,1.3,4.4v7.7h-2.7v-7.2c0-1.2-0.2-2-0.7-2.6c-0.4-0.6-1.1-0.9-1.9-0.9
		c-0.9,0-1.6,0.3-2.2,1c-0.5,0.7-0.8,1.7-0.8,3v6.8h-2.7v-7.2c0-1.2-0.2-2-0.7-2.6c-0.4-0.6-1.1-0.9-1.9-0.9c-0.9,0-1.6,0.3-2.2,1
		c-0.5,0.7-0.8,1.7-0.8,3v6.8h-2.7v-13.3h2.6v1.7c0.4-0.6,1-1.1,1.6-1.4c0.6-0.3,1.4-0.5,2.2-0.5c0.9,0,1.6,0.2,2.3,0.6
		s1.2,0.9,1.6,1.7c0.5-0.7,1.1-1.2,1.8-1.6c0.7-0.4,1.6-0.6,2.5-0.6C233.4,245.7,234.5,246.2,235.4,247.1z"/>
	<path class="st3" d="M248.4,247.1c0.9,0.9,1.3,2.4,1.3,4.3v7.8h-2.5v-1.6c-0.3,0.6-0.8,1-1.4,1.3c-0.6,0.3-1.3,0.5-2.2,0.5
		c-0.9,0-1.6-0.2-2.3-0.5c-0.6-0.3-1.1-0.8-1.5-1.4c-0.4-0.6-0.5-1.3-0.5-2.1c0-1.2,0.4-2.2,1.2-2.9c0.8-0.7,2-1.1,3.6-1.1h3v-0.2
		c0-0.9-0.2-1.7-0.7-2.2s-1.2-0.8-2.1-0.8c-0.6,0-1.3,0.1-1.9,0.4s-1.2,0.6-1.6,1l-1.1-2.3c0.6-0.5,1.3-0.9,2.2-1.2
		c0.8-0.3,1.7-0.4,2.7-0.4C246.2,245.7,247.5,246.2,248.4,247.1z M245.9,256.5c0.5-0.4,0.9-0.9,1.1-1.5v-1.5h-2.8
		c-1.6,0-2.3,0.6-2.3,1.8c0,0.6,0.2,1,0.6,1.4c0.4,0.3,0.9,0.5,1.6,0.5C244.8,257.1,245.4,256.9,245.9,256.5z"/>
	<path class="st3" d="M255.3,258.5c-0.9-0.6-1.7-1.4-2.2-2.4c-0.5-1-0.8-2.2-0.8-3.5s0.3-2.5,0.8-3.5c0.5-1,1.3-1.8,2.2-2.4
		c0.9-0.6,2-0.9,3.2-0.9c1.1,0,2.1,0.3,3,0.8c0.9,0.5,1.5,1.3,1.9,2.3l-2.1,1.4c-0.3-0.6-0.7-1.1-1.2-1.4c-0.5-0.3-1-0.5-1.6-0.5
		c-1,0-1.8,0.4-2.5,1.1c-0.7,0.8-1,1.8-1,3s0.3,2.3,1,3c0.7,0.8,1.5,1.1,2.5,1.1c0.6,0,1.1-0.2,1.6-0.5c0.5-0.3,0.9-0.8,1.2-1.4
		l2.1,1.4c-0.4,1-1.1,1.8-2,2.3c-0.9,0.5-1.8,0.8-3,0.8C257.4,259.4,256.3,259.1,255.3,258.5z"/>
	<path class="st3" d="M265.9,243.1c-0.3-0.4-0.5-0.8-0.5-1.3s0.2-1,0.5-1.3c0.3-0.4,0.7-0.5,1.2-0.5s0.9,0.2,1.2,0.5
		c0.3,0.3,0.5,0.8,0.5,1.3c0,0.5-0.2,1-0.5,1.4s-0.7,0.6-1.2,0.6C266.7,243.6,266.2,243.5,265.9,243.1z M265.8,245.8h2.7v13.3h-2.7
		V245.8z"/>
	<path class="st3" d="M274,258.5c-0.9-0.6-1.7-1.4-2.2-2.4c-0.5-1-0.8-2.2-0.8-3.5s0.3-2.5,0.8-3.5c0.5-1,1.3-1.8,2.2-2.4
		c0.9-0.6,2-0.9,3.1-0.9c1.2,0,2.2,0.3,3.2,0.9c0.9,0.6,1.7,1.4,2.2,2.4c0.5,1,0.8,2.2,0.8,3.5s-0.3,2.5-0.8,3.5
		c-0.5,1-1.3,1.9-2.2,2.4c-0.9,0.6-2,0.9-3.2,0.9C276,259.4,275,259.1,274,258.5z M279.6,255.5c0.6-0.8,1-1.8,1-3s-0.3-2.3-1-3
		s-1.5-1.1-2.5-1.1s-1.8,0.4-2.4,1.1s-1,1.8-1,3s0.3,2.3,1,3c0.6,0.8,1.5,1.2,2.4,1.2S279,256.3,279.6,255.5z M278.3,240.6h3.2
		l-3.8,3.4h-2.3L278.3,240.6z"/>
	<path class="st3" d="M295.9,247.2c0.9,1,1.3,2.4,1.3,4.4v7.7h-2.7v-7.2c0-1.2-0.2-2-0.7-2.6c-0.5-0.6-1.2-0.9-2-0.9
		c-1,0-1.8,0.3-2.3,1c-0.6,0.7-0.9,1.7-0.9,3v6.8h-2.7v-13.3h2.6v1.7c0.4-0.6,1-1.1,1.7-1.4c0.7-0.3,1.4-0.5,2.3-0.5
		C293.9,245.7,295.1,246.2,295.9,247.2z"/>
</g>
<g>
	<g>
		<path class="st3" d="M32.7,183l0-13l-5.6,10.8h-1.4l-5.6-10.6V183h-3v-19.6h2.6l6.7,13l6.6-13h2.6l0,19.6H32.7z"/>
		<path class="st3" d="M52,176.7H41.9c0.2,1.1,0.6,2,1.4,2.6c0.7,0.6,1.7,1,2.8,1c1.4,0,2.6-0.5,3.5-1.6l1.6,2.2
			c-0.6,0.8-1.3,1.4-2.2,1.8c-0.9,0.4-1.9,0.6-3,0.6c-1.4,0-2.7-0.3-3.7-1s-1.9-1.6-2.5-2.7c-0.6-1.2-0.9-2.5-0.9-4
			c0-1.5,0.3-2.8,0.9-3.9c0.6-1.2,1.4-2.1,2.4-2.7s2.2-1,3.4-1c1.3,0,2.4,0.3,3.4,1c1,0.6,1.8,1.5,2.3,2.7c0.6,1.2,0.8,2.5,0.8,4
			C52.1,175.9,52,176.2,52,176.7z M43.1,171.7c-0.7,0.7-1.1,1.5-1.2,2.6h7.3c-0.1-1.1-0.5-2-1.2-2.6c-0.7-0.7-1.5-1-2.5-1
			C44.6,170.7,43.8,171.1,43.1,171.7z"/>
		<path class="st3" d="M66.2,169.6c1,1.1,1.5,2.7,1.5,4.9v8.6h-3v-8.1c0-1.3-0.3-2.3-0.8-3c-0.5-0.7-1.3-1-2.3-1
			c-1.1,0-2,0.4-2.6,1.2c-0.6,0.8-1,1.9-1,3.3v7.6h-3v-15h2.9v1.9c0.5-0.7,1.1-1.2,1.9-1.6c0.8-0.4,1.6-0.5,2.6-0.5
			C63.9,167.9,65.2,168.5,66.2,169.6z"/>
		<path class="st3" d="M79.2,182.2c-0.4,0.3-0.8,0.6-1.3,0.8s-1,0.3-1.6,0.3c-1.4,0-2.5-0.4-3.3-1.3s-1.2-2.1-1.2-3.8V171h-2.1v-2.8
			h2.1v-3.4h3v3.4h3.5v2.8h-3.5v7.1c0,0.7,0.2,1.3,0.5,1.7s0.7,0.6,1.3,0.6c0.7,0,1.2-0.2,1.7-0.6L79.2,182.2z"/>
		<path class="st3" d="M83.6,182.3c-1-0.7-1.9-1.6-2.5-2.7c-0.6-1.2-0.9-2.5-0.9-4s0.3-2.8,0.9-3.9c0.6-1.2,1.4-2.1,2.5-2.7
			s2.2-1,3.5-1c1.3,0,2.5,0.3,3.5,1s1.9,1.6,2.5,2.7c0.6,1.2,0.9,2.5,0.9,3.9s-0.3,2.8-0.9,4c-0.6,1.2-1.4,2.1-2.5,2.7s-2.2,1-3.5,1
			C85.8,183.2,84.6,182.9,83.6,182.3z M89.8,179c0.7-0.9,1.1-2,1.1-3.4c0-1.4-0.4-2.5-1.1-3.4c-0.7-0.9-1.6-1.3-2.8-1.3
			s-2,0.4-2.7,1.3c-0.7,0.9-1.1,2-1.1,3.4c0,1.4,0.4,2.5,1.1,3.4s1.6,1.3,2.7,1.3S89.1,179.8,89.8,179z"/>
		<path class="st3" d="M104.3,167.9v3.3c-0.3-0.1-0.5-0.1-0.7-0.1c-1.2,0-2.1,0.4-2.8,1.2c-0.7,0.8-1,1.9-1,3.4v7.3h-3v-15h2.9v2.2
			C100.6,168.7,102.1,167.9,104.3,167.9z"/>
		<path class="st3" d="M107,165c-0.4-0.4-0.6-0.9-0.6-1.5s0.2-1.1,0.6-1.5s0.8-0.6,1.4-0.6c0.5,0,1,0.2,1.4,0.6
			c0.4,0.4,0.6,0.9,0.6,1.4c0,0.6-0.2,1.1-0.5,1.6s-0.8,0.6-1.4,0.6C107.8,165.6,107.4,165.4,107,165z M106.9,168.1h3v15h-3V168.1z"
			/>
		<path class="st3" d="M125.1,169.6c1,1.1,1.5,2.7,1.5,4.9v8.6h-3v-8.1c0-1.3-0.3-2.3-0.8-3c-0.5-0.7-1.3-1-2.3-1
			c-1.1,0-2,0.4-2.6,1.2c-0.6,0.8-1,1.9-1,3.3v7.6h-3v-15h2.9v1.9c0.5-0.7,1.1-1.2,1.9-1.6c0.8-0.4,1.6-0.5,2.6-0.5
			C122.8,167.9,124.1,168.5,125.1,169.6z"/>
		<path class="st3" d="M143.3,168.1v12.7c0,5.3-2.3,7.9-7,7.9c-1.2,0-2.4-0.2-3.5-0.5c-1.1-0.4-2-0.9-2.8-1.6l1.4-2.6
			c0.6,0.5,1.3,1,2.1,1.3c0.9,0.3,1.7,0.5,2.6,0.5c1.4,0,2.5-0.4,3.1-1.1c0.7-0.7,1-1.9,1-3.4v-0.8c-0.5,0.7-1.1,1.1-1.9,1.5
			s-1.6,0.5-2.4,0.5c-1.2,0-2.3-0.3-3.3-0.9s-1.8-1.5-2.3-2.6c-0.6-1.1-0.9-2.4-0.9-3.8s0.3-2.7,0.9-3.8c0.6-1.1,1.4-1.9,2.3-2.5
			s2.1-0.9,3.3-0.9c0.9,0,1.8,0.2,2.5,0.5s1.4,0.9,1.9,1.6v-2H143.3z M139.2,178.2c0.7-0.8,1.1-1.8,1.1-3.1c0-1.3-0.4-2.3-1.1-3.1
			c-0.7-0.8-1.7-1.2-2.8-1.2c-1.2,0-2.1,0.4-2.8,1.2c-0.7,0.8-1.1,1.8-1.1,3.1c0,1.3,0.4,2.3,1.1,3.1c0.7,0.8,1.7,1.2,2.8,1.2
			C137.6,179.4,138.5,179,139.2,178.2z"/>
	</g>
</g>
<g>
	<g>
		<path class="st3" d="M128.4,80c-1.2-0.7-2.1-1.8-2.8-3.1c-0.7-1.3-1-2.8-1-4.4c0-1.6,0.3-3.1,1-4.4s1.6-2.3,2.8-3.1
			c1.2-0.7,2.5-1.1,4-1.1c1.2,0,2.3,0.2,3.2,0.7c1,0.5,1.8,1.2,2.5,2.1l-1.7,1.9c-1-1.3-2.3-2-3.9-2c-1,0-1.9,0.3-2.7,0.8
			s-1.4,1.2-1.8,2.1c-0.4,0.9-0.7,1.9-0.7,3c0,1.1,0.2,2.2,0.7,3c0.4,0.9,1.1,1.6,1.8,2.1s1.7,0.8,2.7,0.8c1.5,0,2.8-0.7,3.9-2
			l1.7,1.9c-0.7,0.9-1.5,1.6-2.5,2.1c-1,0.5-2.1,0.7-3.3,0.7C130.9,81.1,129.5,80.7,128.4,80z"/>
		<path class="st3" d="M142,80.2c-0.9-0.6-1.6-1.3-2.1-2.3c-0.5-1-0.8-2.1-0.8-3.4c0-1.3,0.3-2.4,0.8-3.4c0.5-1,1.2-1.8,2.1-2.3
			c0.9-0.6,1.9-0.8,3-0.8c1.1,0,2.1,0.3,3,0.8c0.9,0.6,1.6,1.3,2.1,2.3s0.8,2.1,0.8,3.4c0,1.3-0.3,2.4-0.8,3.4s-1.2,1.8-2.1,2.3
			c-0.9,0.6-1.9,0.8-3,0.8C143.9,81,142.8,80.7,142,80.2z M147.3,77.3c0.6-0.7,0.9-1.7,0.9-2.9s-0.3-2.2-0.9-2.9
			c-0.6-0.7-1.4-1.1-2.4-1.1c-1,0-1.7,0.4-2.3,1.1c-0.6,0.7-0.9,1.7-0.9,2.9s0.3,2.2,0.9,2.9s1.4,1.1,2.3,1.1
			C145.9,78.4,146.7,78.1,147.3,77.3z"/>
		<path class="st3" d="M153.4,63h2.6v17.8h-2.6V63z"/>
		<path class="st3" d="M167.3,69.2c0.9,0.9,1.3,2.3,1.3,4.1v7.5h-2.4v-1.6c-0.3,0.6-0.8,1-1.4,1.3c-0.6,0.3-1.3,0.4-2.1,0.4
			s-1.6-0.2-2.2-0.5c-0.6-0.3-1.1-0.8-1.4-1.4c-0.3-0.6-0.5-1.2-0.5-2c0-1.2,0.4-2.1,1.1-2.8c0.7-0.7,1.9-1,3.5-1h2.9v-0.2
			c0-0.9-0.2-1.6-0.7-2.1c-0.5-0.5-1.1-0.7-2.1-0.7c-0.6,0-1.2,0.1-1.8,0.3c-0.6,0.2-1.1,0.5-1.5,0.9l-1-2.2
			c0.6-0.5,1.3-0.9,2.1-1.2c0.8-0.3,1.7-0.4,2.6-0.4C165.2,67.9,166.4,68.3,167.3,69.2z M164.9,78.3c0.5-0.3,0.9-0.8,1.1-1.5v-1.5
			h-2.7c-1.5,0-2.2,0.6-2.2,1.7c0,0.5,0.2,1,0.6,1.3c0.4,0.3,0.9,0.5,1.6,0.5C163.8,78.8,164.4,78.6,164.9,78.3z"/>
		<path class="st3" d="M180.9,68.7c0.8,0.5,1.5,1.3,2,2.3c0.5,1,0.7,2.1,0.7,3.4s-0.2,2.4-0.7,3.4c-0.5,1-1.1,1.8-2,2.3
			c-0.8,0.5-1.8,0.8-2.9,0.8c-0.8,0-1.5-0.2-2.1-0.5c-0.6-0.3-1.2-0.8-1.6-1.4v1.7h-2.5V63h2.6v6.6c0.4-0.6,1-1,1.6-1.3
			c0.6-0.3,1.3-0.4,2-0.4C179.1,67.9,180,68.1,180.9,68.7z M180.1,77.3c0.6-0.7,0.9-1.7,0.9-2.9s-0.3-2.2-0.9-2.9
			c-0.6-0.7-1.4-1.1-2.3-1.1c-0.6,0-1.2,0.2-1.7,0.5c-0.5,0.3-0.9,0.8-1.2,1.4c-0.3,0.6-0.4,1.3-0.4,2.1c0,0.8,0.1,1.5,0.4,2.1
			c0.3,0.6,0.7,1.1,1.2,1.4c0.5,0.3,1.1,0.5,1.7,0.5C178.7,78.4,179.5,78.1,180.1,77.3z"/>
		<path class="st3" d="M188,80.2c-0.9-0.6-1.6-1.3-2.1-2.3c-0.5-1-0.8-2.1-0.8-3.4c0-1.3,0.3-2.4,0.8-3.4c0.5-1,1.2-1.8,2.1-2.3
			c0.9-0.6,1.9-0.8,3-0.8c1.1,0,2.1,0.3,3,0.8c0.9,0.6,1.6,1.3,2.1,2.3s0.8,2.1,0.8,3.4c0,1.3-0.3,2.4-0.8,3.4s-1.2,1.8-2.1,2.3
			c-0.9,0.6-1.9,0.8-3,0.8C189.9,81,188.9,80.7,188,80.2z M193.4,77.3c0.6-0.7,0.9-1.7,0.9-2.9s-0.3-2.2-0.9-2.9
			c-0.6-0.7-1.4-1.1-2.4-1.1c-1,0-1.7,0.4-2.3,1.1c-0.6,0.7-0.9,1.7-0.9,2.9s0.3,2.2,0.9,2.9s1.4,1.1,2.3,1.1
			C192,78.4,192.8,78.1,193.4,77.3z"/>
		<path class="st3" d="M205.8,67.9v2.9c-0.2,0-0.4-0.1-0.6-0.1c-1,0-1.8,0.3-2.4,1c-0.6,0.7-0.8,1.7-0.8,2.9v6.2h-2.6V68h2.5v1.9
			C202.6,68.5,203.9,67.9,205.8,67.9z"/>
		<path class="st3" d="M215.9,69.2c0.9,0.9,1.3,2.3,1.3,4.1v7.5h-2.4v-1.6c-0.3,0.6-0.8,1-1.4,1.3c-0.6,0.3-1.3,0.4-2.1,0.4
			s-1.6-0.2-2.2-0.5c-0.6-0.3-1.1-0.8-1.4-1.4c-0.3-0.6-0.5-1.2-0.5-2c0-1.2,0.4-2.1,1.1-2.8c0.7-0.7,1.9-1,3.5-1h2.9v-0.2
			c0-0.9-0.2-1.6-0.7-2.1c-0.5-0.5-1.1-0.7-2.1-0.7c-0.6,0-1.2,0.1-1.8,0.3c-0.6,0.2-1.1,0.5-1.5,0.9l-1-2.2
			c0.6-0.5,1.3-0.9,2.1-1.2c0.8-0.3,1.7-0.4,2.6-0.4C213.8,67.9,215,68.3,215.9,69.2z M213.5,78.3c0.5-0.3,0.9-0.8,1.1-1.5v-1.5
			h-2.7c-1.5,0-2.2,0.6-2.2,1.7c0,0.5,0.2,1,0.6,1.3c0.4,0.3,0.9,0.5,1.6,0.5C212.5,78.8,213,78.6,213.5,78.3z"/>
		<path class="st3" d="M222.6,80.2c-0.9-0.6-1.6-1.3-2.1-2.3c-0.5-1-0.8-2.1-0.8-3.4c0-1.3,0.3-2.4,0.8-3.4c0.5-1,1.2-1.8,2.1-2.3
			c0.9-0.6,1.9-0.8,3.1-0.8c1.1,0,2,0.3,2.9,0.8c0.8,0.5,1.4,1.2,1.9,2.2l-2,1.3c-0.3-0.6-0.7-1-1.2-1.3s-1-0.4-1.6-0.4
			c-1,0-1.8,0.4-2.4,1.1c-0.6,0.7-1,1.7-1,2.9c0,1.2,0.3,2.2,0.9,2.9c0.6,0.7,1.4,1.1,2.4,1.1c0.6,0,1.1-0.1,1.6-0.4
			s0.9-0.7,1.2-1.3l2,1.3c-0.4,1-1.1,1.7-1.9,2.2c-0.8,0.5-1.8,0.8-2.8,0.8C224.5,81,223.5,80.7,222.6,80.2z"/>
		<path class="st3" d="M232.8,65.4c-0.3-0.3-0.5-0.8-0.5-1.3c0-0.5,0.2-0.9,0.5-1.3s0.7-0.5,1.2-0.5s0.9,0.2,1.2,0.5
			c0.3,0.3,0.5,0.7,0.5,1.2c0,0.5-0.2,1-0.5,1.3c-0.3,0.4-0.7,0.5-1.2,0.5C233.5,65.9,233.1,65.7,232.8,65.4z M232.6,68h2.6v12.8
			h-2.6V68z"/>
		<path class="st3" d="M240.6,80.2c-0.9-0.6-1.6-1.3-2.1-2.3c-0.5-1-0.8-2.1-0.8-3.4c0-1.3,0.3-2.4,0.8-3.4c0.5-1,1.2-1.8,2.1-2.3
			c0.9-0.6,1.9-0.8,3-0.8c1.1,0,2.1,0.3,3,0.8c0.9,0.6,1.6,1.3,2.1,2.3s0.8,2.1,0.8,3.4c0,1.3-0.3,2.4-0.8,3.4s-1.2,1.8-2.1,2.3
			c-0.9,0.6-1.9,0.8-3,0.8C242.5,81,241.4,80.7,240.6,80.2z M245.9,77.3c0.6-0.7,0.9-1.7,0.9-2.9s-0.3-2.2-0.9-2.9
			c-0.6-0.7-1.4-1.1-2.4-1.1c-1,0-1.7,0.4-2.3,1.1c-0.6,0.7-0.9,1.7-0.9,2.9s0.3,2.2,0.9,2.9s1.4,1.1,2.3,1.1
			C244.5,78.4,245.3,78.1,245.9,77.3z M244.6,63h3l-3.6,3.3h-2.2L244.6,63z"/>
		<path class="st3" d="M261.6,69.3c0.8,0.9,1.3,2.3,1.3,4.2v7.3h-2.6v-7c0-1.1-0.2-2-0.7-2.5c-0.5-0.6-1.1-0.9-1.9-0.9
			c-1,0-1.7,0.3-2.3,1c-0.6,0.7-0.8,1.6-0.8,2.9v6.5h-2.6V68h2.5v1.7c0.4-0.6,1-1,1.6-1.3c0.6-0.3,1.4-0.5,2.2-0.5
			C259.6,67.9,260.7,68.3,261.6,69.3z"/>
		<path class="st3" d="M266.9,80.6c-0.9-0.3-1.5-0.6-2-1l1-2.3c0.5,0.4,1.1,0.7,1.8,0.9c0.7,0.2,1.4,0.3,2.1,0.3
			c1.5,0,2.3-0.5,2.3-1.4c0-0.4-0.2-0.8-0.6-0.9c-0.4-0.2-1-0.3-1.9-0.5c-0.9-0.2-1.7-0.3-2.2-0.6c-0.6-0.2-1.1-0.6-1.5-1.1
			c-0.4-0.5-0.6-1.2-0.6-2.2c0-1.2,0.4-2.2,1.3-2.9c0.9-0.7,2.1-1.1,3.5-1.1c0.8,0,1.5,0.1,2.3,0.3c0.8,0.2,1.4,0.5,1.9,0.8l-1,2.3
			c-0.9-0.6-2-1-3.2-1c-0.8,0-1.3,0.1-1.7,0.4c-0.4,0.3-0.6,0.6-0.6,1c0,0.5,0.2,0.8,0.6,1c0.4,0.2,1.1,0.4,2,0.6
			c0.9,0.2,1.6,0.3,2.2,0.6s1.1,0.6,1.5,1.1c0.4,0.5,0.6,1.2,0.6,2.1c0,1.2-0.4,2.2-1.3,2.9c-0.9,0.7-2.1,1.1-3.7,1.1
			C268.6,81,267.8,80.9,266.9,80.6z"/>
	</g>
</g>
</svg>
